﻿<?xml version="1.0" encoding="UTF-8"?>
<TestRun id="24e6ec2a-0860-4f08-a1e7-b552ee001f8a" name="Roman@ROMAN-PC 2013-09-08 09:42:48" runUser="Roman-PC\Roman" xmlns="http://microsoft.com/schemas/VisualStudio/TeamTest/2010">
  <TestSettings name="Default Test Settings" id="a57178a7-1a87-4ce3-9d7f-b098d8cf8a5c">
    <Execution>
      <TestTypeSpecific />
      <AgentRule name="Execution Agents">
      </AgentRule>
    </Execution>
    <Deployment runDeploymentRoot="Roman_ROMAN-PC 2013-09-08 09_42_48" />
  </TestSettings>
  <Times creation="2013-09-08T09:42:48.1850267+04:00" queuing="2013-09-08T09:42:50.0431330+04:00" start="2013-09-08T09:42:50.6151657+04:00" finish="2013-09-08T09:42:52.5462761+04:00" />
  <ResultSummary outcome="Completed">
    <Counters total="33" executed="33" passed="33" error="0" failed="0" timeout="0" aborted="0" inconclusive="0" passedButRunAborted="0" notRunnable="0" notExecuted="0" disconnected="0" warning="0" completed="0" inProgress="0" pending="0" />
  </ResultSummary>
  <TestDefinitions>
    <UnitTest name="ScheduleManagerAddDuplicateErrorCourseTest" storage="schedulemanagertests\bin\debug\schedulemanagertests.dll" id="8c379d54-a93e-3fe1-13bb-77516e967c00">
      <Execution id="ac33aab9-b16b-4d54-81eb-dd1d45a39f5d" />
      <TestMethod codeBase="C:/Users/Roman/Documents/Visual Studio 2012/Projects/ScheduleManager/ScheduleManagerTests/bin/Debug/ScheduleManagerTests.DLL" adapterTypeName="Microsoft.VisualStudio.TestTools.TestTypes.Unit.UnitTestAdapter, Microsoft.VisualStudio.QualityTools.Tips.UnitTest.Adapter, Version=11.0.0.0, Culture=neutral, PublicKeyToken=b03f5f7f11d50a3a" className="ScheduleManagerTests.ScheduleManagerTests, ScheduleManagerTests, Version=1.0.0.0, Culture=neutral, PublicKeyToken=null" name="ScheduleManagerAddDuplicateErrorCourseTest" />
    </UnitTest>
    <UnitTest name="CourseAddProfessorNotInitializedTest" storage="schedulemanagertests\bin\debug\schedulemanagertests.dll" id="c0da4ab4-1052-b062-c43a-c8e75451c72a">
      <Execution id="a3e09df8-7bc5-4dd8-bfe9-a44e3d818b99" />
      <TestMethod codeBase="C:/Users/Roman/Documents/Visual Studio 2012/Projects/ScheduleManager/ScheduleManagerTests/bin/Debug/ScheduleManagerTests.DLL" adapterTypeName="Microsoft.VisualStudio.TestTools.TestTypes.Unit.UnitTestAdapter, Microsoft.VisualStudio.QualityTools.Tips.UnitTest.Adapter, Version=11.0.0.0, Culture=neutral, PublicKeyToken=b03f5f7f11d50a3a" className="ScheduleManagerTests.CourseTests, ScheduleManagerTests, Version=1.0.0.0, Culture=neutral, PublicKeyToken=null" name="CourseAddProfessorNotInitializedTest" />
    </UnitTest>
    <UnitTest name="StudentInitializationTest" storage="schedulemanagertests\bin\debug\schedulemanagertests.dll" id="ce228b1f-90ac-dbf7-c38c-33222228f4f8">
      <Execution id="3b1de666-2a21-47f5-a73e-1493f8707d97" />
      <TestMethod codeBase="C:/Users/Roman/Documents/Visual Studio 2012/Projects/ScheduleManager/ScheduleManagerTests/bin/Debug/ScheduleManagerTests.DLL" adapterTypeName="Microsoft.VisualStudio.TestTools.TestTypes.Unit.UnitTestAdapter, Microsoft.VisualStudio.QualityTools.Tips.UnitTest.Adapter, Version=11.0.0.0, Culture=neutral, PublicKeyToken=b03f5f7f11d50a3a" className="ScheduleManagerTests.StudentTests, ScheduleManagerTests, Version=1.0.0.0, Culture=neutral, PublicKeyToken=null" name="StudentInitializationTest" />
    </UnitTest>
    <UnitTest name="CourseChangeStatusNoPrivilegesTest" storage="schedulemanagertests\bin\debug\schedulemanagertests.dll" id="7be786a6-b016-4c1c-b860-fcc353874e2b">
      <Execution id="be9312ad-3b7e-4b81-801c-ac5179ebcc61" />
      <TestMethod codeBase="C:/Users/Roman/Documents/Visual Studio 2012/Projects/ScheduleManager/ScheduleManagerTests/bin/Debug/ScheduleManagerTests.DLL" adapterTypeName="Microsoft.VisualStudio.TestTools.TestTypes.Unit.UnitTestAdapter, Microsoft.VisualStudio.QualityTools.Tips.UnitTest.Adapter, Version=11.0.0.0, Culture=neutral, PublicKeyToken=b03f5f7f11d50a3a" className="ScheduleManagerTests.CourseTests, ScheduleManagerTests, Version=1.0.0.0, Culture=neutral, PublicKeyToken=null" name="CourseChangeStatusNoPrivilegesTest" />
    </UnitTest>
    <UnitTest name="CourseInitializationTest" storage="schedulemanagertests\bin\debug\schedulemanagertests.dll" id="43cf0b74-92e8-ddb2-1184-10ce08fe760c">
      <Execution id="43b71ffa-453d-499b-abf6-3b5ed257da57" />
      <TestMethod codeBase="C:/Users/Roman/Documents/Visual Studio 2012/Projects/ScheduleManager/ScheduleManagerTests/bin/Debug/ScheduleManagerTests.DLL" adapterTypeName="Microsoft.VisualStudio.TestTools.TestTypes.Unit.UnitTestAdapter, Microsoft.VisualStudio.QualityTools.Tips.UnitTest.Adapter, Version=11.0.0.0, Culture=neutral, PublicKeyToken=b03f5f7f11d50a3a" className="ScheduleManagerTests.CourseTests, ScheduleManagerTests, Version=1.0.0.0, Culture=neutral, PublicKeyToken=null" name="CourseInitializationTest" />
    </UnitTest>
    <UnitTest name="ProfessorInitializationTest" storage="schedulemanagertests\bin\debug\schedulemanagertests.dll" id="1ef1a738-aa0f-87ee-3246-e50398ea6627">
      <Execution id="840d0fba-8b0e-4b5e-bd1b-e4e47944125c" />
      <TestMethod codeBase="C:/Users/Roman/Documents/Visual Studio 2012/Projects/ScheduleManager/ScheduleManagerTests/bin/Debug/ScheduleManagerTests.DLL" adapterTypeName="Microsoft.VisualStudio.TestTools.TestTypes.Unit.UnitTestAdapter, Microsoft.VisualStudio.QualityTools.Tips.UnitTest.Adapter, Version=11.0.0.0, Culture=neutral, PublicKeyToken=b03f5f7f11d50a3a" className="ScheduleManagerTests.ProfessorTests, ScheduleManagerTests, Version=1.0.0.0, Culture=neutral, PublicKeyToken=null" name="ProfessorInitializationTest" />
    </UnitTest>
    <UnitTest name="CourseRemoveKeywordNotFoundTest" storage="schedulemanagertests\bin\debug\schedulemanagertests.dll" id="78dda980-234b-cc46-4593-7beba431398e">
      <Execution id="fc21c971-4ebc-4f9b-87e6-bdebed430071" />
      <TestMethod codeBase="C:/Users/Roman/Documents/Visual Studio 2012/Projects/ScheduleManager/ScheduleManagerTests/bin/Debug/ScheduleManagerTests.DLL" adapterTypeName="Microsoft.VisualStudio.TestTools.TestTypes.Unit.UnitTestAdapter, Microsoft.VisualStudio.QualityTools.Tips.UnitTest.Adapter, Version=11.0.0.0, Culture=neutral, PublicKeyToken=b03f5f7f11d50a3a" className="ScheduleManagerTests.CourseTests, ScheduleManagerTests, Version=1.0.0.0, Culture=neutral, PublicKeyToken=null" name="CourseRemoveKeywordNotFoundTest" />
    </UnitTest>
    <UnitTest name="ProfessorFailedInitializationTest" storage="schedulemanagertests\bin\debug\schedulemanagertests.dll" id="bb5f9e04-b06c-b89e-81d2-1e2836a8e793">
      <Execution id="10c68fc6-cabe-4083-b179-1175534c9f29" />
      <TestMethod codeBase="C:/Users/Roman/Documents/Visual Studio 2012/Projects/ScheduleManager/ScheduleManagerTests/bin/Debug/ScheduleManagerTests.DLL" adapterTypeName="Microsoft.VisualStudio.TestTools.TestTypes.Unit.UnitTestAdapter, Microsoft.VisualStudio.QualityTools.Tips.UnitTest.Adapter, Version=11.0.0.0, Culture=neutral, PublicKeyToken=b03f5f7f11d50a3a" className="ScheduleManagerTests.ProfessorTests, ScheduleManagerTests, Version=1.0.0.0, Culture=neutral, PublicKeyToken=null" name="ProfessorFailedInitializationTest" />
    </UnitTest>
    <UnitTest name="CourseAddStudentNotInitializedTest" storage="schedulemanagertests\bin\debug\schedulemanagertests.dll" id="a69c46fa-2971-b05e-e329-1ffa4ea663c6">
      <Execution id="9a1e1a72-5816-4901-ad3f-6cf6590c2802" />
      <TestMethod codeBase="C:/Users/Roman/Documents/Visual Studio 2012/Projects/ScheduleManager/ScheduleManagerTests/bin/Debug/ScheduleManagerTests.DLL" adapterTypeName="Microsoft.VisualStudio.TestTools.TestTypes.Unit.UnitTestAdapter, Microsoft.VisualStudio.QualityTools.Tips.UnitTest.Adapter, Version=11.0.0.0, Culture=neutral, PublicKeyToken=b03f5f7f11d50a3a" className="ScheduleManagerTests.CourseTests, ScheduleManagerTests, Version=1.0.0.0, Culture=neutral, PublicKeyToken=null" name="CourseAddStudentNotInitializedTest" />
    </UnitTest>
    <UnitTest name="ScheduleManagerRemoveCourseTest" storage="schedulemanagertests\bin\debug\schedulemanagertests.dll" id="315b0637-c353-b76d-49bb-64ed10fadfca">
      <Execution id="8902bbda-1472-4a9c-8332-25ea916e0089" />
      <TestMethod codeBase="C:/Users/Roman/Documents/Visual Studio 2012/Projects/ScheduleManager/ScheduleManagerTests/bin/Debug/ScheduleManagerTests.DLL" adapterTypeName="Microsoft.VisualStudio.TestTools.TestTypes.Unit.UnitTestAdapter, Microsoft.VisualStudio.QualityTools.Tips.UnitTest.Adapter, Version=11.0.0.0, Culture=neutral, PublicKeyToken=b03f5f7f11d50a3a" className="ScheduleManagerTests.ScheduleManagerTests, ScheduleManagerTests, Version=1.0.0.0, Culture=neutral, PublicKeyToken=null" name="ScheduleManagerRemoveCourseTest" />
    </UnitTest>
    <UnitTest name="CourseRemoveProfessorWithPhDNotFoundTest" storage="schedulemanagertests\bin\debug\schedulemanagertests.dll" id="78ea96d7-54f3-7155-6c2b-5e91360a0883">
      <Execution id="713a24e1-1193-4dbb-b4b8-08d637f06eba" />
      <TestMethod codeBase="C:/Users/Roman/Documents/Visual Studio 2012/Projects/ScheduleManager/ScheduleManagerTests/bin/Debug/ScheduleManagerTests.DLL" adapterTypeName="Microsoft.VisualStudio.TestTools.TestTypes.Unit.UnitTestAdapter, Microsoft.VisualStudio.QualityTools.Tips.UnitTest.Adapter, Version=11.0.0.0, Culture=neutral, PublicKeyToken=b03f5f7f11d50a3a" className="ScheduleManagerTests.CourseTests, ScheduleManagerTests, Version=1.0.0.0, Culture=neutral, PublicKeyToken=null" name="CourseRemoveProfessorWithPhDNotFoundTest" />
    </UnitTest>
    <UnitTest name="ScheduleManagerAddCourseTest" storage="schedulemanagertests\bin\debug\schedulemanagertests.dll" id="6b4412bc-2099-bc8f-37a8-330ecf76b649">
      <Execution id="5ad5d7db-c1ca-4705-aea3-cef2fcb3581d" />
      <TestMethod codeBase="C:/Users/Roman/Documents/Visual Studio 2012/Projects/ScheduleManager/ScheduleManagerTests/bin/Debug/ScheduleManagerTests.DLL" adapterTypeName="Microsoft.VisualStudio.TestTools.TestTypes.Unit.UnitTestAdapter, Microsoft.VisualStudio.QualityTools.Tips.UnitTest.Adapter, Version=11.0.0.0, Culture=neutral, PublicKeyToken=b03f5f7f11d50a3a" className="ScheduleManagerTests.ScheduleManagerTests, ScheduleManagerTests, Version=1.0.0.0, Culture=neutral, PublicKeyToken=null" name="ScheduleManagerAddCourseTest" />
    </UnitTest>
    <UnitTest name="CourseChangeStatusTest" storage="schedulemanagertests\bin\debug\schedulemanagertests.dll" id="6afd9b8d-b1c1-3eaf-a59b-f9c72172a180">
      <Execution id="b4c092c1-444e-41a6-bb98-8a9ffc20003b" />
      <TestMethod codeBase="C:/Users/Roman/Documents/Visual Studio 2012/Projects/ScheduleManager/ScheduleManagerTests/bin/Debug/ScheduleManagerTests.DLL" adapterTypeName="Microsoft.VisualStudio.TestTools.TestTypes.Unit.UnitTestAdapter, Microsoft.VisualStudio.QualityTools.Tips.UnitTest.Adapter, Version=11.0.0.0, Culture=neutral, PublicKeyToken=b03f5f7f11d50a3a" className="ScheduleManagerTests.CourseTests, ScheduleManagerTests, Version=1.0.0.0, Culture=neutral, PublicKeyToken=null" name="CourseChangeStatusTest" />
    </UnitTest>
    <UnitTest name="CourseAddKeywordExceedTest" storage="schedulemanagertests\bin\debug\schedulemanagertests.dll" id="8313bb8b-6df1-d08f-9637-90549beffc5c">
      <Execution id="fa6734bf-6ca6-49a4-81c7-dc0c27fc4676" />
      <TestMethod codeBase="C:/Users/Roman/Documents/Visual Studio 2012/Projects/ScheduleManager/ScheduleManagerTests/bin/Debug/ScheduleManagerTests.DLL" adapterTypeName="Microsoft.VisualStudio.TestTools.TestTypes.Unit.UnitTestAdapter, Microsoft.VisualStudio.QualityTools.Tips.UnitTest.Adapter, Version=11.0.0.0, Culture=neutral, PublicKeyToken=b03f5f7f11d50a3a" className="ScheduleManagerTests.CourseTests, ScheduleManagerTests, Version=1.0.0.0, Culture=neutral, PublicKeyToken=null" name="CourseAddKeywordExceedTest" />
    </UnitTest>
    <UnitTest name="CourseAddStudentBirthdaySmallAgeTest" storage="schedulemanagertests\bin\debug\schedulemanagertests.dll" id="e744b545-eadd-c4d7-e6b9-c6af0617ea95">
      <Execution id="a2f4f79c-38da-47a7-9e12-724fb47a9bd8" />
      <TestMethod codeBase="C:/Users/Roman/Documents/Visual Studio 2012/Projects/ScheduleManager/ScheduleManagerTests/bin/Debug/ScheduleManagerTests.DLL" adapterTypeName="Microsoft.VisualStudio.TestTools.TestTypes.Unit.UnitTestAdapter, Microsoft.VisualStudio.QualityTools.Tips.UnitTest.Adapter, Version=11.0.0.0, Culture=neutral, PublicKeyToken=b03f5f7f11d50a3a" className="ScheduleManagerTests.CourseTests, ScheduleManagerTests, Version=1.0.0.0, Culture=neutral, PublicKeyToken=null" name="CourseAddStudentBirthdaySmallAgeTest" />
    </UnitTest>
    <UnitTest name="CourseAddStudentWithoutAgeRestrictionTest" storage="schedulemanagertests\bin\debug\schedulemanagertests.dll" id="81998d47-4551-5f19-2ed8-7ea19a1d660f">
      <Execution id="396c4f55-ba31-4195-86a8-e0599b865dcc" />
      <TestMethod codeBase="C:/Users/Roman/Documents/Visual Studio 2012/Projects/ScheduleManager/ScheduleManagerTests/bin/Debug/ScheduleManagerTests.DLL" adapterTypeName="Microsoft.VisualStudio.TestTools.TestTypes.Unit.UnitTestAdapter, Microsoft.VisualStudio.QualityTools.Tips.UnitTest.Adapter, Version=11.0.0.0, Culture=neutral, PublicKeyToken=b03f5f7f11d50a3a" className="ScheduleManagerTests.CourseTests, ScheduleManagerTests, Version=1.0.0.0, Culture=neutral, PublicKeyToken=null" name="CourseAddStudentWithoutAgeRestrictionTest" />
    </UnitTest>
    <UnitTest name="ScheduleManagerChangeStatusCourseNotFoundTest" storage="schedulemanagertests\bin\debug\schedulemanagertests.dll" id="50cf8cc2-145b-d0c1-9dcc-823e90d58324">
      <Execution id="a09b928f-a010-4bd8-8868-66399a860932" />
      <TestMethod codeBase="C:/Users/Roman/Documents/Visual Studio 2012/Projects/ScheduleManager/ScheduleManagerTests/bin/Debug/ScheduleManagerTests.DLL" adapterTypeName="Microsoft.VisualStudio.TestTools.TestTypes.Unit.UnitTestAdapter, Microsoft.VisualStudio.QualityTools.Tips.UnitTest.Adapter, Version=11.0.0.0, Culture=neutral, PublicKeyToken=b03f5f7f11d50a3a" className="ScheduleManagerTests.ScheduleManagerTests, ScheduleManagerTests, Version=1.0.0.0, Culture=neutral, PublicKeyToken=null" name="ScheduleManagerChangeStatusCourseNotFoundTest" />
    </UnitTest>
    <UnitTest name="CourseRemoveStudentTest" storage="schedulemanagertests\bin\debug\schedulemanagertests.dll" id="2d285a3d-04c3-d702-78df-c168158cc3e9">
      <Execution id="6c13d16f-920b-4e4a-ba2e-cf3955e4da56" />
      <TestMethod codeBase="C:/Users/Roman/Documents/Visual Studio 2012/Projects/ScheduleManager/ScheduleManagerTests/bin/Debug/ScheduleManagerTests.DLL" adapterTypeName="Microsoft.VisualStudio.TestTools.TestTypes.Unit.UnitTestAdapter, Microsoft.VisualStudio.QualityTools.Tips.UnitTest.Adapter, Version=11.0.0.0, Culture=neutral, PublicKeyToken=b03f5f7f11d50a3a" className="ScheduleManagerTests.CourseTests, ScheduleManagerTests, Version=1.0.0.0, Culture=neutral, PublicKeyToken=null" name="CourseRemoveStudentTest" />
    </UnitTest>
    <UnitTest name="AdministratorFailedInitializationTest" storage="schedulemanagertests\bin\debug\schedulemanagertests.dll" id="f48456d1-6a5a-02e6-843e-74cb22dcda53">
      <Execution id="b9923187-ffc2-4b9d-a0a2-ddd63da8d2db" />
      <TestMethod codeBase="C:/Users/Roman/Documents/Visual Studio 2012/Projects/ScheduleManager/ScheduleManagerTests/bin/Debug/ScheduleManagerTests.DLL" adapterTypeName="Microsoft.VisualStudio.TestTools.TestTypes.Unit.UnitTestAdapter, Microsoft.VisualStudio.QualityTools.Tips.UnitTest.Adapter, Version=11.0.0.0, Culture=neutral, PublicKeyToken=b03f5f7f11d50a3a" className="ScheduleManagerTests.AdministratorTests, ScheduleManagerTests, Version=1.0.0.0, Culture=neutral, PublicKeyToken=null" name="AdministratorFailedInitializationTest" />
    </UnitTest>
    <UnitTest name="CourseRemoveStudentNotFoundTest" storage="schedulemanagertests\bin\debug\schedulemanagertests.dll" id="2ab46a25-8fad-a342-be20-42c975c28086">
      <Execution id="2c0a8415-173a-4489-922d-d8aabdf16fba" />
      <TestMethod codeBase="C:/Users/Roman/Documents/Visual Studio 2012/Projects/ScheduleManager/ScheduleManagerTests/bin/Debug/ScheduleManagerTests.DLL" adapterTypeName="Microsoft.VisualStudio.TestTools.TestTypes.Unit.UnitTestAdapter, Microsoft.VisualStudio.QualityTools.Tips.UnitTest.Adapter, Version=11.0.0.0, Culture=neutral, PublicKeyToken=b03f5f7f11d50a3a" className="ScheduleManagerTests.CourseTests, ScheduleManagerTests, Version=1.0.0.0, Culture=neutral, PublicKeyToken=null" name="CourseRemoveStudentNotFoundTest" />
    </UnitTest>
    <UnitTest name="ScheduleManagerChangeStatusCourseTest" storage="schedulemanagertests\bin\debug\schedulemanagertests.dll" id="37719a28-a630-c1ac-d7c4-49106745b341">
      <Execution id="bff5a43c-b6b8-4022-a2ca-bf4da80ed179" />
      <TestMethod codeBase="C:/Users/Roman/Documents/Visual Studio 2012/Projects/ScheduleManager/ScheduleManagerTests/bin/Debug/ScheduleManagerTests.DLL" adapterTypeName="Microsoft.VisualStudio.TestTools.TestTypes.Unit.UnitTestAdapter, Microsoft.VisualStudio.QualityTools.Tips.UnitTest.Adapter, Version=11.0.0.0, Culture=neutral, PublicKeyToken=b03f5f7f11d50a3a" className="ScheduleManagerTests.ScheduleManagerTests, ScheduleManagerTests, Version=1.0.0.0, Culture=neutral, PublicKeyToken=null" name="ScheduleManagerChangeStatusCourseTest" />
    </UnitTest>
    <UnitTest name="ScheduleManagerFindCourseByTitleTest" storage="schedulemanagertests\bin\debug\schedulemanagertests.dll" id="d50d6de6-584e-cbe2-4aed-0069060b250e">
      <Execution id="9c34c0f9-d2da-41cc-8b37-b697f6f57b60" />
      <TestMethod codeBase="C:/Users/Roman/Documents/Visual Studio 2012/Projects/ScheduleManager/ScheduleManagerTests/bin/Debug/ScheduleManagerTests.DLL" adapterTypeName="Microsoft.VisualStudio.TestTools.TestTypes.Unit.UnitTestAdapter, Microsoft.VisualStudio.QualityTools.Tips.UnitTest.Adapter, Version=11.0.0.0, Culture=neutral, PublicKeyToken=b03f5f7f11d50a3a" className="ScheduleManagerTests.ScheduleManagerTests, ScheduleManagerTests, Version=1.0.0.0, Culture=neutral, PublicKeyToken=null" name="ScheduleManagerFindCourseByTitleTest" />
    </UnitTest>
    <UnitTest name="CourseAddProfessorTest" storage="schedulemanagertests\bin\debug\schedulemanagertests.dll" id="fc828b2e-1134-960e-32f2-d1ad0cb4e190">
      <Execution id="996f783b-6a46-4a4c-84fe-84cf7ab7cc97" />
      <TestMethod codeBase="C:/Users/Roman/Documents/Visual Studio 2012/Projects/ScheduleManager/ScheduleManagerTests/bin/Debug/ScheduleManagerTests.DLL" adapterTypeName="Microsoft.VisualStudio.TestTools.TestTypes.Unit.UnitTestAdapter, Microsoft.VisualStudio.QualityTools.Tips.UnitTest.Adapter, Version=11.0.0.0, Culture=neutral, PublicKeyToken=b03f5f7f11d50a3a" className="ScheduleManagerTests.CourseTests, ScheduleManagerTests, Version=1.0.0.0, Culture=neutral, PublicKeyToken=null" name="CourseAddProfessorTest" />
    </UnitTest>
    <UnitTest name="ScheduleManagerRemoveNotFoundCourseTest" storage="schedulemanagertests\bin\debug\schedulemanagertests.dll" id="a6d7390e-f607-bfe4-4d3e-5e9595ab0d3f">
      <Execution id="d8dcf624-a02e-410d-bdd8-0d97759874b7" />
      <TestMethod codeBase="C:/Users/Roman/Documents/Visual Studio 2012/Projects/ScheduleManager/ScheduleManagerTests/bin/Debug/ScheduleManagerTests.DLL" adapterTypeName="Microsoft.VisualStudio.TestTools.TestTypes.Unit.UnitTestAdapter, Microsoft.VisualStudio.QualityTools.Tips.UnitTest.Adapter, Version=11.0.0.0, Culture=neutral, PublicKeyToken=b03f5f7f11d50a3a" className="ScheduleManagerTests.ScheduleManagerTests, ScheduleManagerTests, Version=1.0.0.0, Culture=neutral, PublicKeyToken=null" name="ScheduleManagerRemoveNotFoundCourseTest" />
    </UnitTest>
    <UnitTest name="CourseAddStudentBirthdayIsNullTest" storage="schedulemanagertests\bin\debug\schedulemanagertests.dll" id="65777a8a-519c-4eb2-12b8-ca31d4193614">
      <Execution id="28e7b531-4bfb-42f1-a8d7-57faade5ad54" />
      <TestMethod codeBase="C:/Users/Roman/Documents/Visual Studio 2012/Projects/ScheduleManager/ScheduleManagerTests/bin/Debug/ScheduleManagerTests.DLL" adapterTypeName="Microsoft.VisualStudio.TestTools.TestTypes.Unit.UnitTestAdapter, Microsoft.VisualStudio.QualityTools.Tips.UnitTest.Adapter, Version=11.0.0.0, Culture=neutral, PublicKeyToken=b03f5f7f11d50a3a" className="ScheduleManagerTests.CourseTests, ScheduleManagerTests, Version=1.0.0.0, Culture=neutral, PublicKeyToken=null" name="CourseAddStudentBirthdayIsNullTest" />
    </UnitTest>
    <UnitTest name="CourseRemoveProfessorWithPhDTest" storage="schedulemanagertests\bin\debug\schedulemanagertests.dll" id="28b0e5f8-52d0-89d7-deea-b30e4a5f626a">
      <Execution id="bb6ee17d-83cd-4b79-94f5-1c089057c7ed" />
      <TestMethod codeBase="C:/Users/Roman/Documents/Visual Studio 2012/Projects/ScheduleManager/ScheduleManagerTests/bin/Debug/ScheduleManagerTests.DLL" adapterTypeName="Microsoft.VisualStudio.TestTools.TestTypes.Unit.UnitTestAdapter, Microsoft.VisualStudio.QualityTools.Tips.UnitTest.Adapter, Version=11.0.0.0, Culture=neutral, PublicKeyToken=b03f5f7f11d50a3a" className="ScheduleManagerTests.CourseTests, ScheduleManagerTests, Version=1.0.0.0, Culture=neutral, PublicKeyToken=null" name="CourseRemoveProfessorWithPhDTest" />
    </UnitTest>
    <UnitTest name="AdministratorInitializationTest" storage="schedulemanagertests\bin\debug\schedulemanagertests.dll" id="131318e2-3e9f-bb0c-e6c5-201d6a80f5cf">
      <Execution id="b821ce3c-7074-4736-8e2f-c630548dad4a" />
      <TestMethod codeBase="C:/Users/Roman/Documents/Visual Studio 2012/Projects/ScheduleManager/ScheduleManagerTests/bin/Debug/ScheduleManagerTests.DLL" adapterTypeName="Microsoft.VisualStudio.TestTools.TestTypes.Unit.UnitTestAdapter, Microsoft.VisualStudio.QualityTools.Tips.UnitTest.Adapter, Version=11.0.0.0, Culture=neutral, PublicKeyToken=b03f5f7f11d50a3a" className="ScheduleManagerTests.AdministratorTests, ScheduleManagerTests, Version=1.0.0.0, Culture=neutral, PublicKeyToken=null" name="AdministratorInitializationTest" />
    </UnitTest>
    <UnitTest name="ScheduleManagerFindCourseByTitleNotFoundTest" storage="schedulemanagertests\bin\debug\schedulemanagertests.dll" id="23e9dd89-7be2-6035-03d6-82dfef01a362">
      <Execution id="c33fbdc0-7ed2-42b8-be6b-bd0fa0cda0b5" />
      <TestMethod codeBase="C:/Users/Roman/Documents/Visual Studio 2012/Projects/ScheduleManager/ScheduleManagerTests/bin/Debug/ScheduleManagerTests.DLL" adapterTypeName="Microsoft.VisualStudio.TestTools.TestTypes.Unit.UnitTestAdapter, Microsoft.VisualStudio.QualityTools.Tips.UnitTest.Adapter, Version=11.0.0.0, Culture=neutral, PublicKeyToken=b03f5f7f11d50a3a" className="ScheduleManagerTests.ScheduleManagerTests, ScheduleManagerTests, Version=1.0.0.0, Culture=neutral, PublicKeyToken=null" name="ScheduleManagerFindCourseByTitleNotFoundTest" />
    </UnitTest>
    <UnitTest name="CourseRemoveKeywordTest" storage="schedulemanagertests\bin\debug\schedulemanagertests.dll" id="b81921d2-03d6-c2e7-bfe5-d7c31ef86e9c">
      <Execution id="ed93c197-070d-4570-8b20-4cc0463d7d7c" />
      <TestMethod codeBase="C:/Users/Roman/Documents/Visual Studio 2012/Projects/ScheduleManager/ScheduleManagerTests/bin/Debug/ScheduleManagerTests.DLL" adapterTypeName="Microsoft.VisualStudio.TestTools.TestTypes.Unit.UnitTestAdapter, Microsoft.VisualStudio.QualityTools.Tips.UnitTest.Adapter, Version=11.0.0.0, Culture=neutral, PublicKeyToken=b03f5f7f11d50a3a" className="ScheduleManagerTests.CourseTests, ScheduleManagerTests, Version=1.0.0.0, Culture=neutral, PublicKeyToken=null" name="CourseRemoveKeywordTest" />
    </UnitTest>
    <UnitTest name="CourseRemoveProfessorWithNotFoundTest" storage="schedulemanagertests\bin\debug\schedulemanagertests.dll" id="0bf03262-ce29-94b7-3e8f-674d0f8e078a">
      <Execution id="4c424591-7bd9-4550-8905-db79c382084a" />
      <TestMethod codeBase="C:/Users/Roman/Documents/Visual Studio 2012/Projects/ScheduleManager/ScheduleManagerTests/bin/Debug/ScheduleManagerTests.DLL" adapterTypeName="Microsoft.VisualStudio.TestTools.TestTypes.Unit.UnitTestAdapter, Microsoft.VisualStudio.QualityTools.Tips.UnitTest.Adapter, Version=11.0.0.0, Culture=neutral, PublicKeyToken=b03f5f7f11d50a3a" className="ScheduleManagerTests.CourseTests, ScheduleManagerTests, Version=1.0.0.0, Culture=neutral, PublicKeyToken=null" name="CourseRemoveProfessorWithNotFoundTest" />
    </UnitTest>
    <UnitTest name="StudentFailedInitializationTest" storage="schedulemanagertests\bin\debug\schedulemanagertests.dll" id="c9baea72-a839-06e7-4379-6b95ed8a2ce0">
      <Execution id="855bdaa3-15dd-48c0-8853-9ac748dba9ba" />
      <TestMethod codeBase="C:/Users/Roman/Documents/Visual Studio 2012/Projects/ScheduleManager/ScheduleManagerTests/bin/Debug/ScheduleManagerTests.DLL" adapterTypeName="Microsoft.VisualStudio.TestTools.TestTypes.Unit.UnitTestAdapter, Microsoft.VisualStudio.QualityTools.Tips.UnitTest.Adapter, Version=11.0.0.0, Culture=neutral, PublicKeyToken=b03f5f7f11d50a3a" className="ScheduleManagerTests.StudentTests, ScheduleManagerTests, Version=1.0.0.0, Culture=neutral, PublicKeyToken=null" name="StudentFailedInitializationTest" />
    </UnitTest>
    <UnitTest name="CourseAddStudentTest" storage="schedulemanagertests\bin\debug\schedulemanagertests.dll" id="41d53951-5522-110f-a1c6-911c671f6af3">
      <Execution id="120aca54-c59e-4565-8510-e26eb49b2e7c" />
      <TestMethod codeBase="C:/Users/Roman/Documents/Visual Studio 2012/Projects/ScheduleManager/ScheduleManagerTests/bin/Debug/ScheduleManagerTests.DLL" adapterTypeName="Microsoft.VisualStudio.TestTools.TestTypes.Unit.UnitTestAdapter, Microsoft.VisualStudio.QualityTools.Tips.UnitTest.Adapter, Version=11.0.0.0, Culture=neutral, PublicKeyToken=b03f5f7f11d50a3a" className="ScheduleManagerTests.CourseTests, ScheduleManagerTests, Version=1.0.0.0, Culture=neutral, PublicKeyToken=null" name="CourseAddStudentTest" />
    </UnitTest>
    <UnitTest name="CourseAddKeywordTest" storage="schedulemanagertests\bin\debug\schedulemanagertests.dll" id="7bcd76fe-7f6a-6c48-45c5-6bbc4f252bdf">
      <Execution id="cfe861fc-a8d5-4e03-a94e-0ba50a4b23a5" />
      <TestMethod codeBase="C:/Users/Roman/Documents/Visual Studio 2012/Projects/ScheduleManager/ScheduleManagerTests/bin/Debug/ScheduleManagerTests.DLL" adapterTypeName="Microsoft.VisualStudio.TestTools.TestTypes.Unit.UnitTestAdapter, Microsoft.VisualStudio.QualityTools.Tips.UnitTest.Adapter, Version=11.0.0.0, Culture=neutral, PublicKeyToken=b03f5f7f11d50a3a" className="ScheduleManagerTests.CourseTests, ScheduleManagerTests, Version=1.0.0.0, Culture=neutral, PublicKeyToken=null" name="CourseAddKeywordTest" />
    </UnitTest>
  </TestDefinitions>
  <TestLists>
    <TestList name="Results Not in a List" id="8c84fa94-04c1-424b-9868-57a2d4851a1d" />
    <TestList name="All Loaded Results" id="19431567-8539-422a-85d7-44ee4e166bda" />
  </TestLists>
  <TestEntries>
    <TestEntry testId="f48456d1-6a5a-02e6-843e-74cb22dcda53" executionId="b9923187-ffc2-4b9d-a0a2-ddd63da8d2db" testListId="8c84fa94-04c1-424b-9868-57a2d4851a1d" />
    <TestEntry testId="131318e2-3e9f-bb0c-e6c5-201d6a80f5cf" executionId="b821ce3c-7074-4736-8e2f-c630548dad4a" testListId="8c84fa94-04c1-424b-9868-57a2d4851a1d" />
    <TestEntry testId="8313bb8b-6df1-d08f-9637-90549beffc5c" executionId="fa6734bf-6ca6-49a4-81c7-dc0c27fc4676" testListId="8c84fa94-04c1-424b-9868-57a2d4851a1d" />
    <TestEntry testId="7bcd76fe-7f6a-6c48-45c5-6bbc4f252bdf" executionId="cfe861fc-a8d5-4e03-a94e-0ba50a4b23a5" testListId="8c84fa94-04c1-424b-9868-57a2d4851a1d" />
    <TestEntry testId="c0da4ab4-1052-b062-c43a-c8e75451c72a" executionId="a3e09df8-7bc5-4dd8-bfe9-a44e3d818b99" testListId="8c84fa94-04c1-424b-9868-57a2d4851a1d" />
    <TestEntry testId="fc828b2e-1134-960e-32f2-d1ad0cb4e190" executionId="996f783b-6a46-4a4c-84fe-84cf7ab7cc97" testListId="8c84fa94-04c1-424b-9868-57a2d4851a1d" />
    <TestEntry testId="65777a8a-519c-4eb2-12b8-ca31d4193614" executionId="28e7b531-4bfb-42f1-a8d7-57faade5ad54" testListId="8c84fa94-04c1-424b-9868-57a2d4851a1d" />
    <TestEntry testId="e744b545-eadd-c4d7-e6b9-c6af0617ea95" executionId="a2f4f79c-38da-47a7-9e12-724fb47a9bd8" testListId="8c84fa94-04c1-424b-9868-57a2d4851a1d" />
    <TestEntry testId="a69c46fa-2971-b05e-e329-1ffa4ea663c6" executionId="9a1e1a72-5816-4901-ad3f-6cf6590c2802" testListId="8c84fa94-04c1-424b-9868-57a2d4851a1d" />
    <TestEntry testId="41d53951-5522-110f-a1c6-911c671f6af3" executionId="120aca54-c59e-4565-8510-e26eb49b2e7c" testListId="8c84fa94-04c1-424b-9868-57a2d4851a1d" />
    <TestEntry testId="81998d47-4551-5f19-2ed8-7ea19a1d660f" executionId="396c4f55-ba31-4195-86a8-e0599b865dcc" testListId="8c84fa94-04c1-424b-9868-57a2d4851a1d" />
    <TestEntry testId="7be786a6-b016-4c1c-b860-fcc353874e2b" executionId="be9312ad-3b7e-4b81-801c-ac5179ebcc61" testListId="8c84fa94-04c1-424b-9868-57a2d4851a1d" />
    <TestEntry testId="6afd9b8d-b1c1-3eaf-a59b-f9c72172a180" executionId="b4c092c1-444e-41a6-bb98-8a9ffc20003b" testListId="8c84fa94-04c1-424b-9868-57a2d4851a1d" />
    <TestEntry testId="43cf0b74-92e8-ddb2-1184-10ce08fe760c" executionId="43b71ffa-453d-499b-abf6-3b5ed257da57" testListId="8c84fa94-04c1-424b-9868-57a2d4851a1d" />
    <TestEntry testId="78dda980-234b-cc46-4593-7beba431398e" executionId="fc21c971-4ebc-4f9b-87e6-bdebed430071" testListId="8c84fa94-04c1-424b-9868-57a2d4851a1d" />
    <TestEntry testId="b81921d2-03d6-c2e7-bfe5-d7c31ef86e9c" executionId="ed93c197-070d-4570-8b20-4cc0463d7d7c" testListId="8c84fa94-04c1-424b-9868-57a2d4851a1d" />
    <TestEntry testId="0bf03262-ce29-94b7-3e8f-674d0f8e078a" executionId="4c424591-7bd9-4550-8905-db79c382084a" testListId="8c84fa94-04c1-424b-9868-57a2d4851a1d" />
    <TestEntry testId="78ea96d7-54f3-7155-6c2b-5e91360a0883" executionId="713a24e1-1193-4dbb-b4b8-08d637f06eba" testListId="8c84fa94-04c1-424b-9868-57a2d4851a1d" />
    <TestEntry testId="28b0e5f8-52d0-89d7-deea-b30e4a5f626a" executionId="bb6ee17d-83cd-4b79-94f5-1c089057c7ed" testListId="8c84fa94-04c1-424b-9868-57a2d4851a1d" />
    <TestEntry testId="2ab46a25-8fad-a342-be20-42c975c28086" executionId="2c0a8415-173a-4489-922d-d8aabdf16fba" testListId="8c84fa94-04c1-424b-9868-57a2d4851a1d" />
    <TestEntry testId="2d285a3d-04c3-d702-78df-c168158cc3e9" executionId="6c13d16f-920b-4e4a-ba2e-cf3955e4da56" testListId="8c84fa94-04c1-424b-9868-57a2d4851a1d" />
    <TestEntry testId="bb5f9e04-b06c-b89e-81d2-1e2836a8e793" executionId="10c68fc6-cabe-4083-b179-1175534c9f29" testListId="8c84fa94-04c1-424b-9868-57a2d4851a1d" />
    <TestEntry testId="1ef1a738-aa0f-87ee-3246-e50398ea6627" executionId="840d0fba-8b0e-4b5e-bd1b-e4e47944125c" testListId="8c84fa94-04c1-424b-9868-57a2d4851a1d" />
    <TestEntry testId="6b4412bc-2099-bc8f-37a8-330ecf76b649" executionId="5ad5d7db-c1ca-4705-aea3-cef2fcb3581d" testListId="8c84fa94-04c1-424b-9868-57a2d4851a1d" />
    <TestEntry testId="8c379d54-a93e-3fe1-13bb-77516e967c00" executionId="ac33aab9-b16b-4d54-81eb-dd1d45a39f5d" testListId="8c84fa94-04c1-424b-9868-57a2d4851a1d" />
    <TestEntry testId="50cf8cc2-145b-d0c1-9dcc-823e90d58324" executionId="a09b928f-a010-4bd8-8868-66399a860932" testListId="8c84fa94-04c1-424b-9868-57a2d4851a1d" />
    <TestEntry testId="37719a28-a630-c1ac-d7c4-49106745b341" executionId="bff5a43c-b6b8-4022-a2ca-bf4da80ed179" testListId="8c84fa94-04c1-424b-9868-57a2d4851a1d" />
    <TestEntry testId="23e9dd89-7be2-6035-03d6-82dfef01a362" executionId="c33fbdc0-7ed2-42b8-be6b-bd0fa0cda0b5" testListId="8c84fa94-04c1-424b-9868-57a2d4851a1d" />
    <TestEntry testId="d50d6de6-584e-cbe2-4aed-0069060b250e" executionId="9c34c0f9-d2da-41cc-8b37-b697f6f57b60" testListId="8c84fa94-04c1-424b-9868-57a2d4851a1d" />
    <TestEntry testId="315b0637-c353-b76d-49bb-64ed10fadfca" executionId="8902bbda-1472-4a9c-8332-25ea916e0089" testListId="8c84fa94-04c1-424b-9868-57a2d4851a1d" />
    <TestEntry testId="a6d7390e-f607-bfe4-4d3e-5e9595ab0d3f" executionId="d8dcf624-a02e-410d-bdd8-0d97759874b7" testListId="8c84fa94-04c1-424b-9868-57a2d4851a1d" />
    <TestEntry testId="c9baea72-a839-06e7-4379-6b95ed8a2ce0" executionId="855bdaa3-15dd-48c0-8853-9ac748dba9ba" testListId="8c84fa94-04c1-424b-9868-57a2d4851a1d" />
    <TestEntry testId="ce228b1f-90ac-dbf7-c38c-33222228f4f8" executionId="3b1de666-2a21-47f5-a73e-1493f8707d97" testListId="8c84fa94-04c1-424b-9868-57a2d4851a1d" />
  </TestEntries>
  <Results>
    <UnitTestResult executionId="b9923187-ffc2-4b9d-a0a2-ddd63da8d2db" testId="f48456d1-6a5a-02e6-843e-74cb22dcda53" testName="AdministratorFailedInitializationTest" computerName="ROMAN-PC" duration="00:00:00.0554405" startTime="2013-09-08T09:42:50.9041822+04:00" endTime="2013-09-08T09:42:51.7932331+04:00" testType="13cdc9d9-ddb5-4fa4-a97d-d965ccfc6d4b" outcome="Passed" testListId="8c84fa94-04c1-424b-9868-57a2d4851a1d" relativeResultsDirectory="b9923187-ffc2-4b9d-a0a2-ddd63da8d2db">
      <Output>
        <StdErr>Some of fields have been initialized in an incorrect way.</StdErr>
      </Output>
    </UnitTestResult>
    <UnitTestResult executionId="b821ce3c-7074-4736-8e2f-c630548dad4a" testId="131318e2-3e9f-bb0c-e6c5-201d6a80f5cf" testName="AdministratorInitializationTest" computerName="ROMAN-PC" duration="00:00:00.0177808" startTime="2013-09-08T09:42:51.8002335+04:00" endTime="2013-09-08T09:42:51.8532365+04:00" testType="13cdc9d9-ddb5-4fa4-a97d-d965ccfc6d4b" outcome="Passed" testListId="8c84fa94-04c1-424b-9868-57a2d4851a1d" relativeResultsDirectory="b821ce3c-7074-4736-8e2f-c630548dad4a">
    </UnitTestResult>
    <UnitTestResult executionId="fa6734bf-6ca6-49a4-81c7-dc0c27fc4676" testId="8313bb8b-6df1-d08f-9637-90549beffc5c" testName="CourseAddKeywordExceedTest" computerName="ROMAN-PC" duration="00:00:00.0063334" startTime="2013-09-08T09:42:51.8592368+04:00" endTime="2013-09-08T09:42:51.8862384+04:00" testType="13cdc9d9-ddb5-4fa4-a97d-d965ccfc6d4b" outcome="Passed" testListId="8c84fa94-04c1-424b-9868-57a2d4851a1d" relativeResultsDirectory="fa6734bf-6ca6-49a4-81c7-dc0c27fc4676">
    </UnitTestResult>
    <UnitTestResult executionId="cfe861fc-a8d5-4e03-a94e-0ba50a4b23a5" testId="7bcd76fe-7f6a-6c48-45c5-6bbc4f252bdf" testName="CourseAddKeywordTest" computerName="ROMAN-PC" duration="00:00:00.0006661" startTime="2013-09-08T09:42:51.8892385+04:00" endTime="2013-09-08T09:42:51.8962389+04:00" testType="13cdc9d9-ddb5-4fa4-a97d-d965ccfc6d4b" outcome="Passed" testListId="8c84fa94-04c1-424b-9868-57a2d4851a1d" relativeResultsDirectory="cfe861fc-a8d5-4e03-a94e-0ba50a4b23a5">
    </UnitTestResult>
    <UnitTestResult executionId="a3e09df8-7bc5-4dd8-bfe9-a44e3d818b99" testId="c0da4ab4-1052-b062-c43a-c8e75451c72a" testName="CourseAddProfessorNotInitializedTest" computerName="ROMAN-PC" duration="00:00:00.0038561" startTime="2013-09-08T09:42:51.8992391+04:00" endTime="2013-09-08T09:42:51.9112398+04:00" testType="13cdc9d9-ddb5-4fa4-a97d-d965ccfc6d4b" outcome="Passed" testListId="8c84fa94-04c1-424b-9868-57a2d4851a1d" relativeResultsDirectory="a3e09df8-7bc5-4dd8-bfe9-a44e3d818b99">
      <Output>
        <StdErr>Some of fields have been initialized in an incorrect way.</StdErr>
      </Output>
    </UnitTestResult>
    <UnitTestResult executionId="996f783b-6a46-4a4c-84fe-84cf7ab7cc97" testId="fc828b2e-1134-960e-32f2-d1ad0cb4e190" testName="CourseAddProfessorTest" computerName="ROMAN-PC" duration="00:00:00.0007090" startTime="2013-09-08T09:42:51.9322410+04:00" endTime="2013-09-08T09:42:51.9402415+04:00" testType="13cdc9d9-ddb5-4fa4-a97d-d965ccfc6d4b" outcome="Passed" testListId="8c84fa94-04c1-424b-9868-57a2d4851a1d" relativeResultsDirectory="996f783b-6a46-4a4c-84fe-84cf7ab7cc97">
    </UnitTestResult>
    <UnitTestResult executionId="28e7b531-4bfb-42f1-a8d7-57faade5ad54" testId="65777a8a-519c-4eb2-12b8-ca31d4193614" testName="CourseAddStudentBirthdayIsNullTest" computerName="ROMAN-PC" duration="00:00:00.0045985" startTime="2013-09-08T09:42:51.9452417+04:00" endTime="2013-09-08T09:42:51.9572424+04:00" testType="13cdc9d9-ddb5-4fa4-a97d-d965ccfc6d4b" outcome="Passed" testListId="8c84fa94-04c1-424b-9868-57a2d4851a1d" relativeResultsDirectory="28e7b531-4bfb-42f1-a8d7-57faade5ad54">
    </UnitTestResult>
    <UnitTestResult executionId="a2f4f79c-38da-47a7-9e12-724fb47a9bd8" testId="e744b545-eadd-c4d7-e6b9-c6af0617ea95" testName="CourseAddStudentBirthdaySmallAgeTest" computerName="ROMAN-PC" duration="00:00:00.0012154" startTime="2013-09-08T09:42:51.9592426+04:00" endTime="2013-09-08T09:42:51.9682431+04:00" testType="13cdc9d9-ddb5-4fa4-a97d-d965ccfc6d4b" outcome="Passed" testListId="8c84fa94-04c1-424b-9868-57a2d4851a1d" relativeResultsDirectory="a2f4f79c-38da-47a7-9e12-724fb47a9bd8">
    </UnitTestResult>
    <UnitTestResult executionId="9a1e1a72-5816-4901-ad3f-6cf6590c2802" testId="a69c46fa-2971-b05e-e329-1ffa4ea663c6" testName="CourseAddStudentNotInitializedTest" computerName="ROMAN-PC" duration="00:00:00.0024429" startTime="2013-09-08T09:42:51.9702432+04:00" endTime="2013-09-08T09:42:51.9822439+04:00" testType="13cdc9d9-ddb5-4fa4-a97d-d965ccfc6d4b" outcome="Passed" testListId="8c84fa94-04c1-424b-9868-57a2d4851a1d" relativeResultsDirectory="9a1e1a72-5816-4901-ad3f-6cf6590c2802">
      <Output>
        <StdErr>Some of fields have been initialized in an incorrect way.</StdErr>
      </Output>
    </UnitTestResult>
    <UnitTestResult executionId="120aca54-c59e-4565-8510-e26eb49b2e7c" testId="41d53951-5522-110f-a1c6-911c671f6af3" testName="CourseAddStudentTest" computerName="ROMAN-PC" duration="00:00:00.0016326" startTime="2013-09-08T09:42:51.9872442+04:00" endTime="2013-09-08T09:42:51.9972447+04:00" testType="13cdc9d9-ddb5-4fa4-a97d-d965ccfc6d4b" outcome="Passed" testListId="8c84fa94-04c1-424b-9868-57a2d4851a1d" relativeResultsDirectory="120aca54-c59e-4565-8510-e26eb49b2e7c">
    </UnitTestResult>
    <UnitTestResult executionId="396c4f55-ba31-4195-86a8-e0599b865dcc" testId="81998d47-4551-5f19-2ed8-7ea19a1d660f" testName="CourseAddStudentWithoutAgeRestrictionTest" computerName="ROMAN-PC" duration="00:00:00.0011391" startTime="2013-09-08T09:42:52.0362470+04:00" endTime="2013-09-08T09:42:52.0482476+04:00" testType="13cdc9d9-ddb5-4fa4-a97d-d965ccfc6d4b" outcome="Passed" testListId="8c84fa94-04c1-424b-9868-57a2d4851a1d" relativeResultsDirectory="396c4f55-ba31-4195-86a8-e0599b865dcc">
    </UnitTestResult>
    <UnitTestResult executionId="be9312ad-3b7e-4b81-801c-ac5179ebcc61" testId="7be786a6-b016-4c1c-b860-fcc353874e2b" testName="CourseChangeStatusNoPrivilegesTest" computerName="ROMAN-PC" duration="00:00:00.0053571" startTime="2013-09-08T09:42:52.0512478+04:00" endTime="2013-09-08T09:42:52.0652486+04:00" testType="13cdc9d9-ddb5-4fa4-a97d-d965ccfc6d4b" outcome="Passed" testListId="8c84fa94-04c1-424b-9868-57a2d4851a1d" relativeResultsDirectory="be9312ad-3b7e-4b81-801c-ac5179ebcc61">
    </UnitTestResult>
    <UnitTestResult executionId="b4c092c1-444e-41a6-bb98-8a9ffc20003b" testId="6afd9b8d-b1c1-3eaf-a59b-f9c72172a180" testName="CourseChangeStatusTest" computerName="ROMAN-PC" duration="00:00:00.0007402" startTime="2013-09-08T09:42:52.0692488+04:00" endTime="2013-09-08T09:42:52.0762492+04:00" testType="13cdc9d9-ddb5-4fa4-a97d-d965ccfc6d4b" outcome="Passed" testListId="8c84fa94-04c1-424b-9868-57a2d4851a1d" relativeResultsDirectory="b4c092c1-444e-41a6-bb98-8a9ffc20003b">
    </UnitTestResult>
    <UnitTestResult executionId="43b71ffa-453d-499b-abf6-3b5ed257da57" testId="43cf0b74-92e8-ddb2-1184-10ce08fe760c" testName="CourseInitializationTest" computerName="ROMAN-PC" duration="00:00:00.0021047" startTime="2013-09-08T09:42:52.0792494+04:00" endTime="2013-09-08T09:42:52.0882499+04:00" testType="13cdc9d9-ddb5-4fa4-a97d-d965ccfc6d4b" outcome="Passed" testListId="8c84fa94-04c1-424b-9868-57a2d4851a1d" relativeResultsDirectory="43b71ffa-453d-499b-abf6-3b5ed257da57">
    </UnitTestResult>
    <UnitTestResult executionId="fc21c971-4ebc-4f9b-87e6-bdebed430071" testId="78dda980-234b-cc46-4593-7beba431398e" testName="CourseRemoveKeywordNotFoundTest" computerName="ROMAN-PC" duration="00:00:00.0015139" startTime="2013-09-08T09:42:52.0922502+04:00" endTime="2013-09-08T09:42:52.1002506+04:00" testType="13cdc9d9-ddb5-4fa4-a97d-d965ccfc6d4b" outcome="Passed" testListId="8c84fa94-04c1-424b-9868-57a2d4851a1d" relativeResultsDirectory="fc21c971-4ebc-4f9b-87e6-bdebed430071">
    </UnitTestResult>
    <UnitTestResult executionId="ed93c197-070d-4570-8b20-4cc0463d7d7c" testId="b81921d2-03d6-c2e7-bfe5-d7c31ef86e9c" testName="CourseRemoveKeywordTest" computerName="ROMAN-PC" duration="00:00:00.0007902" startTime="2013-09-08T09:42:52.1022507+04:00" endTime="2013-09-08T09:42:52.1102512+04:00" testType="13cdc9d9-ddb5-4fa4-a97d-d965ccfc6d4b" outcome="Passed" testListId="8c84fa94-04c1-424b-9868-57a2d4851a1d" relativeResultsDirectory="ed93c197-070d-4570-8b20-4cc0463d7d7c">
    </UnitTestResult>
    <UnitTestResult executionId="4c424591-7bd9-4550-8905-db79c382084a" testId="0bf03262-ce29-94b7-3e8f-674d0f8e078a" testName="CourseRemoveProfessorWithNotFoundTest" computerName="ROMAN-PC" duration="00:00:00.0021605" startTime="2013-09-08T09:42:52.1122513+04:00" endTime="2013-09-08T09:42:52.1222519+04:00" testType="13cdc9d9-ddb5-4fa4-a97d-d965ccfc6d4b" outcome="Passed" testListId="8c84fa94-04c1-424b-9868-57a2d4851a1d" relativeResultsDirectory="4c424591-7bd9-4550-8905-db79c382084a">
    </UnitTestResult>
    <UnitTestResult executionId="713a24e1-1193-4dbb-b4b8-08d637f06eba" testId="78ea96d7-54f3-7155-6c2b-5e91360a0883" testName="CourseRemoveProfessorWithPhDNotFoundTest" computerName="ROMAN-PC" duration="00:00:00.0015264" startTime="2013-09-08T09:42:52.1242520+04:00" endTime="2013-09-08T09:42:52.1352526+04:00" testType="13cdc9d9-ddb5-4fa4-a97d-d965ccfc6d4b" outcome="Passed" testListId="8c84fa94-04c1-424b-9868-57a2d4851a1d" relativeResultsDirectory="713a24e1-1193-4dbb-b4b8-08d637f06eba">
    </UnitTestResult>
    <UnitTestResult executionId="bb6ee17d-83cd-4b79-94f5-1c089057c7ed" testId="28b0e5f8-52d0-89d7-deea-b30e4a5f626a" testName="CourseRemoveProfessorWithPhDTest" computerName="ROMAN-PC" duration="00:00:00.0010048" startTime="2013-09-08T09:42:52.1392528+04:00" endTime="2013-09-08T09:42:52.1482534+04:00" testType="13cdc9d9-ddb5-4fa4-a97d-d965ccfc6d4b" outcome="Passed" testListId="8c84fa94-04c1-424b-9868-57a2d4851a1d" relativeResultsDirectory="bb6ee17d-83cd-4b79-94f5-1c089057c7ed">
    </UnitTestResult>
    <UnitTestResult executionId="2c0a8415-173a-4489-922d-d8aabdf16fba" testId="2ab46a25-8fad-a342-be20-42c975c28086" testName="CourseRemoveStudentNotFoundTest" computerName="ROMAN-PC" duration="00:00:00.0019418" startTime="2013-09-08T09:42:52.1502535+04:00" endTime="2013-09-08T09:42:52.1592540+04:00" testType="13cdc9d9-ddb5-4fa4-a97d-d965ccfc6d4b" outcome="Passed" testListId="8c84fa94-04c1-424b-9868-57a2d4851a1d" relativeResultsDirectory="2c0a8415-173a-4489-922d-d8aabdf16fba">
    </UnitTestResult>
    <UnitTestResult executionId="6c13d16f-920b-4e4a-ba2e-cf3955e4da56" testId="2d285a3d-04c3-d702-78df-c168158cc3e9" testName="CourseRemoveStudentTest" computerName="ROMAN-PC" duration="00:00:00.0009624" startTime="2013-09-08T09:42:52.1632542+04:00" endTime="2013-09-08T09:42:52.1712547+04:00" testType="13cdc9d9-ddb5-4fa4-a97d-d965ccfc6d4b" outcome="Passed" testListId="8c84fa94-04c1-424b-9868-57a2d4851a1d" relativeResultsDirectory="6c13d16f-920b-4e4a-ba2e-cf3955e4da56">
    </UnitTestResult>
    <UnitTestResult executionId="10c68fc6-cabe-4083-b179-1175534c9f29" testId="bb5f9e04-b06c-b89e-81d2-1e2836a8e793" testName="ProfessorFailedInitializationTest" computerName="ROMAN-PC" duration="00:00:00.0007384" startTime="2013-09-08T09:42:52.1732548+04:00" endTime="2013-09-08T09:42:52.1822553+04:00" testType="13cdc9d9-ddb5-4fa4-a97d-d965ccfc6d4b" outcome="Passed" testListId="8c84fa94-04c1-424b-9868-57a2d4851a1d" relativeResultsDirectory="10c68fc6-cabe-4083-b179-1175534c9f29">
      <Output>
        <StdErr>Some of fields have been initialized in an incorrect way.</StdErr>
      </Output>
    </UnitTestResult>
    <UnitTestResult executionId="840d0fba-8b0e-4b5e-bd1b-e4e47944125c" testId="1ef1a738-aa0f-87ee-3246-e50398ea6627" testName="ProfessorInitializationTest" computerName="ROMAN-PC" duration="00:00:00.0020012" startTime="2013-09-08T09:42:52.1842554+04:00" endTime="2013-09-08T09:42:52.1962561+04:00" testType="13cdc9d9-ddb5-4fa4-a97d-d965ccfc6d4b" outcome="Passed" testListId="8c84fa94-04c1-424b-9868-57a2d4851a1d" relativeResultsDirectory="840d0fba-8b0e-4b5e-bd1b-e4e47944125c">
    </UnitTestResult>
    <UnitTestResult executionId="5ad5d7db-c1ca-4705-aea3-cef2fcb3581d" testId="6b4412bc-2099-bc8f-37a8-330ecf76b649" testName="ScheduleManagerAddCourseTest" computerName="ROMAN-PC" duration="00:00:00.0024295" startTime="2013-09-08T09:42:52.1982562+04:00" endTime="2013-09-08T09:42:52.2172573+04:00" testType="13cdc9d9-ddb5-4fa4-a97d-d965ccfc6d4b" outcome="Passed" testListId="8c84fa94-04c1-424b-9868-57a2d4851a1d" relativeResultsDirectory="5ad5d7db-c1ca-4705-aea3-cef2fcb3581d">
    </UnitTestResult>
    <UnitTestResult executionId="ac33aab9-b16b-4d54-81eb-dd1d45a39f5d" testId="8c379d54-a93e-3fe1-13bb-77516e967c00" testName="ScheduleManagerAddDuplicateErrorCourseTest" computerName="ROMAN-PC" duration="00:00:00.0016688" startTime="2013-09-08T09:42:52.2202575+04:00" endTime="2013-09-08T09:42:52.2292580+04:00" testType="13cdc9d9-ddb5-4fa4-a97d-d965ccfc6d4b" outcome="Passed" testListId="8c84fa94-04c1-424b-9868-57a2d4851a1d" relativeResultsDirectory="ac33aab9-b16b-4d54-81eb-dd1d45a39f5d">
    </UnitTestResult>
    <UnitTestResult executionId="a09b928f-a010-4bd8-8868-66399a860932" testId="50cf8cc2-145b-d0c1-9dcc-823e90d58324" testName="ScheduleManagerChangeStatusCourseNotFoundTest" computerName="ROMAN-PC" duration="00:00:00.0042804" startTime="2013-09-08T09:42:52.2312581+04:00" endTime="2013-09-08T09:42:52.2452589+04:00" testType="13cdc9d9-ddb5-4fa4-a97d-d965ccfc6d4b" outcome="Passed" testListId="8c84fa94-04c1-424b-9868-57a2d4851a1d" relativeResultsDirectory="a09b928f-a010-4bd8-8868-66399a860932">
    </UnitTestResult>
    <UnitTestResult executionId="bff5a43c-b6b8-4022-a2ca-bf4da80ed179" testId="37719a28-a630-c1ac-d7c4-49106745b341" testName="ScheduleManagerChangeStatusCourseTest" computerName="ROMAN-PC" duration="00:00:00.0017156" startTime="2013-09-08T09:42:52.2472590+04:00" endTime="2013-09-08T09:42:52.2582597+04:00" testType="13cdc9d9-ddb5-4fa4-a97d-d965ccfc6d4b" outcome="Passed" testListId="8c84fa94-04c1-424b-9868-57a2d4851a1d" relativeResultsDirectory="bff5a43c-b6b8-4022-a2ca-bf4da80ed179">
    </UnitTestResult>
    <UnitTestResult executionId="c33fbdc0-7ed2-42b8-be6b-bd0fa0cda0b5" testId="23e9dd89-7be2-6035-03d6-82dfef01a362" testName="ScheduleManagerFindCourseByTitleNotFoundTest" computerName="ROMAN-PC" duration="00:00:00.0031015" startTime="2013-09-08T09:42:52.2612598+04:00" endTime="2013-09-08T09:42:52.2752606+04:00" testType="13cdc9d9-ddb5-4fa4-a97d-d965ccfc6d4b" outcome="Passed" testListId="8c84fa94-04c1-424b-9868-57a2d4851a1d" relativeResultsDirectory="c33fbdc0-7ed2-42b8-be6b-bd0fa0cda0b5">
    </UnitTestResult>
    <UnitTestResult executionId="9c34c0f9-d2da-41cc-8b37-b697f6f57b60" testId="d50d6de6-584e-cbe2-4aed-0069060b250e" testName="ScheduleManagerFindCourseByTitleTest" computerName="ROMAN-PC" duration="00:00:00.0011329" startTime="2013-09-08T09:42:52.2802609+04:00" endTime="2013-09-08T09:42:52.2882614+04:00" testType="13cdc9d9-ddb5-4fa4-a97d-d965ccfc6d4b" outcome="Passed" testListId="8c84fa94-04c1-424b-9868-57a2d4851a1d" relativeResultsDirectory="9c34c0f9-d2da-41cc-8b37-b697f6f57b60">
    </UnitTestResult>
    <UnitTestResult executionId="8902bbda-1472-4a9c-8332-25ea916e0089" testId="315b0637-c353-b76d-49bb-64ed10fadfca" testName="ScheduleManagerRemoveCourseTest" computerName="ROMAN-PC" duration="00:00:00.0020364" startTime="2013-09-08T09:42:52.2952618+04:00" endTime="2013-09-08T09:42:52.3052623+04:00" testType="13cdc9d9-ddb5-4fa4-a97d-d965ccfc6d4b" outcome="Passed" testListId="8c84fa94-04c1-424b-9868-57a2d4851a1d" relativeResultsDirectory="8902bbda-1472-4a9c-8332-25ea916e0089">
    </UnitTestResult>
    <UnitTestResult executionId="d8dcf624-a02e-410d-bdd8-0d97759874b7" testId="a6d7390e-f607-bfe4-4d3e-5e9595ab0d3f" testName="ScheduleManagerRemoveNotFoundCourseTest" computerName="ROMAN-PC" duration="00:00:00.0017750" startTime="2013-09-08T09:42:52.3092626+04:00" endTime="2013-09-08T09:42:52.3252635+04:00" testType="13cdc9d9-ddb5-4fa4-a97d-d965ccfc6d4b" outcome="Passed" testListId="8c84fa94-04c1-424b-9868-57a2d4851a1d" relativeResultsDirectory="d8dcf624-a02e-410d-bdd8-0d97759874b7">
    </UnitTestResult>
    <UnitTestResult executionId="855bdaa3-15dd-48c0-8853-9ac748dba9ba" testId="c9baea72-a839-06e7-4379-6b95ed8a2ce0" testName="StudentFailedInitializationTest" computerName="ROMAN-PC" duration="00:00:00.0034674" startTime="2013-09-08T09:42:52.3272636+04:00" endTime="2013-09-08T09:42:52.3412644+04:00" testType="13cdc9d9-ddb5-4fa4-a97d-d965ccfc6d4b" outcome="Passed" testListId="8c84fa94-04c1-424b-9868-57a2d4851a1d" relativeResultsDirectory="855bdaa3-15dd-48c0-8853-9ac748dba9ba">
      <Output>
        <StdErr>Some of fields have been initialized in an incorrect way.</StdErr>
      </Output>
    </UnitTestResult>
    <UnitTestResult executionId="3b1de666-2a21-47f5-a73e-1493f8707d97" testId="ce228b1f-90ac-dbf7-c38c-33222228f4f8" testName="StudentInitializationTest" computerName="ROMAN-PC" duration="00:00:00.0012984" startTime="2013-09-08T09:42:52.3432645+04:00" endTime="2013-09-08T09:42:52.3522650+04:00" testType="13cdc9d9-ddb5-4fa4-a97d-d965ccfc6d4b" outcome="Passed" testListId="8c84fa94-04c1-424b-9868-57a2d4851a1d" relativeResultsDirectory="3b1de666-2a21-47f5-a73e-1493f8707d97">
    </UnitTestResult>
  </Results>
</TestRun>